{
  "type": "service_account",
  "project_id": "pc-api-5620998791403695449-789",
  "private_key_id": "f774ff01409778fcc20c8353ba0b95edd24717cf",
  "private_key": "-----BEGIN PRIVATE KEY-----\nMIIEvAIBADANBgkqhkiG9w0BAQEFAASCBKYwggSiAgEAAoIBAQDX0hqIfPjr1thT\nyQKpgkTzBe2i8BpVkahWFrrwXXMF17raNrNoZaCXOmXb2blct8iHdwloeVcS0cZB\nyPQ8/MY6dTaGEDCIytxy18u6Rqd4eFIkXS66nnJJORLzH+ehNHsHHsqmRGJvUawn\nTSoP6A8DR4SG1SfpBTTpJNVzMiROGT2LNsCp9vr2DnuYqxdb1oETcdwxrsHiO7OX\nNqLCzdnagKCW5pRJ1NJJFq+FCzfZYV2bUCj8zxvQVDUoA1+JNy0m2zyhoErCGuyW\nSS1f4o1UDauqwyiZw/GaarnsGOo1QtWZpVTHaufM/JQBjcE1xPRtjMXM6F0S/SdS\npqU3bXkPAgMBAAECggEABLQvNfjmcKiR7wPHt+gxHb4zKwE+y3ffMY0muDwZLdrP\nV179upiaOdNZ2N+scvhiQMZ7doL297U0bPFosq/P7R7NqgfOMMbXHb1xxKwV4uV1\nyN0Anh4YEXhg7UxmVIL4QXtOYUtxRDu+MTOKSt+upzHsIEBqFRqWjwYUN8jsRDOt\nmqgGN1DIdLMF1/kSCifD0hH0Y7uMoFXo8CYPVG2sqfAX9IgVhh5CmqRKX9VDsQ8z\nPW70Dh8A6dR15EigK1+RbZDx/+xzzG4WMYdIT8VAcSDvlebl8VdJRlap/8kuTq9f\ntmR0+CfoTOqgttpCxSCGiytVwe3K+DDeWRBDvGl5PQKBgQDwTix9mePMvEAVbt2v\nSioB2Lp/hvkTaqX72aGKGO4XdQNm2sOpQSbrON4+6t2bes6ZlcRxPL9rl/Z4k0np\nmdrBzNTK41CBVSIvag6ZdcS8pFudY7DMQhJ51OsaxAINNKxG7vf10s0hJmNTiSTr\nX+vVZZ0NpyLQM5kO39yIbjSC4wKBgQDl6o372bNqvJK1zHuCZO2RtXwBsAcS8TN0\nXLZ5uY4oFdaTzUZnfOTvGJ99eWU0j64LJjMLWClFbuR2a9QiKxv0YiIAwcPsWvr1\nBRfEfACkt+6LgPvJW1ifTDIMGm0Xtjzk/pU7AEmyyeDq5RpLNOSPloAG29fZZ1nD\naMrntFNM5QKBgHNmFxd5/1siS+P/CZZUFzgry+PR/WrFnFAFgv2+WxgIqUmLZMqy\n7u2msZOlViaEIxK+SUfX1FTm9QWSNbxolhTbOJT19IMnTvNWCwzG8WNlylkatpxg\nXl8DUKPZ3OJamSC3QXxbbwasWKaVBZXCyo3/7hvQV3eET8xE1LLvuWfhAoGAHOPT\nQYFCfTgCy1tNbb4W6AdA9MlUqjmquIVp3HPHfBv6YYoavahA8BZM/CxD3k3rlbUQ\nFu3WCcZ8aLD17/Ewyw2FrkiqwMlR3XXtXaAjSI9gJyFnAg87XJDrfP/ZE3CvyCqB\nP++yUwfw/jMZkbesvKoxnisDvWqyKc7CKElNak0CgYBOu9qcN4Qa5nK35zErhEci\nM6zdbQbBqwS4tJ0YjHh9/bGz6VWltFx+kOgLj8NVcilUsTpAyImKHxsYt9LGTWnT\n2ghtylwuYpwb/5eYXPUsmTxvSpDXa9Q6zPywOCY6FgXVgk43HC8TT//oOIXi2IPz\nv7J9smOIvtYDqXjvSabBRA==\n-----END PRIVATE KEY-----\n",
  "client_email": "qthemusic-production@pc-api-5620998791403695449-789.iam.gserviceaccount.com",
  "client_id": "104960941516218378913",
  "auth_uri": "https://accounts.google.com/o/oauth2/auth",
  "token_uri": "https://oauth2.googleapis.com/token",
  "auth_provider_x509_cert_url": "https://www.googleapis.com/oauth2/v1/certs",
  "client_x509_cert_url": "https://www.googleapis.com/robot/v1/metadata/x509/qthemusic-production%40pc-api-5620998791403695449-789.iam.gserviceaccount.com"
}
