{
  "type": "service_account",
  "project_id": "pc-api-5620998791403695449-789",
  "private_key_id": "ca77d87b3e2970a4f52eacd6e85eebccf0a71905",
  "private_key": "-----BEGIN PRIVATE KEY-----\nMIIEvgIBADANBgkqhkiG9w0BAQEFAASCBKgwggSkAgEAAoIBAQDcXKgDg0Mp5uyl\n9LI/0NUOcNhhvCM/o8+MvOQqtVi89Ng31Fj//bWMTTR8Y1T7VvhC4s4JNFruD7bp\n9mxOsHsL0KCw6fzXyfxzNDWAIVJfvdUEkHi+BZYYVBNll0mTQMwhcxeD2fogjOPq\nDQpwnIVCQnHs9V67VjDH8elyVgRzbUu3H9myh+GaqMmcp6CDyyAgmkTMPi3GTtvn\n2Rbgu+kniD3jT/a9yrpM/KALp6J6iwbvbB9tLQmkE6ksrqCTlgNGcRZljUSiEPqg\nVdgPnUYC61DlptGpYDaKJfvKxm8U/GIRukfvUOyzGCwjp72ldzZpWCgnkQ8yNgG7\nnKArD2q/AgMBAAECggEAGj/J88ErEE67BHnFfJHlDzdPTzUYrc1W59jdr7NdGAUX\nzG61u1NUJkZRaOUcNmRXEQCbXRVTejrSUG7+L9Ft7Cu0jd5m3qg83ixAmJFfkpq2\nSTjnE8ZD6YSlBYZOnq/VS8FonQLWJ2fLrmb8m2AfBOmNUJYEls7e410PBdj2kW52\n4l24GO8i62lRFRAYZCJKzgfr0FkHipf26Qo5XJJqnu8sAG3m5SAqL2l35ofT6HB9\nUJkVNYeKqtcJxyaj+Prwi2mwj6w4XwmoOXKi24DAIudwLaec+NnYoHs86vtGe14Q\n8gaD5hKljJqXrulOS5OmvfhtsMeU2osbIzINnpp/4QKBgQD3wVj/MglcvhNa4LP6\nTb6epLP31NepLr0y1mJLbgTPWadkBTHhH9vbQHt41ew8XDMR8ffLc5V6UF4b06bC\nk6fnCsudRjti3yr+kEHjnogiW2pzJpSnwp/QRzQDGNMr4P118mI2ZycJ5EDpwenx\npZN4+iRL6U6MCNKRyLa8rX8DHQKBgQDjsfEvMcYOHO/K3l36+618cfj0J9F4AxnP\nKXmDpnJ7Tn9LphbZOSNRcWKzV9hZ6TTrupEJ6NJGGYuDhpOiuS2AuC8/A1rjL081\nBRjXg6JVbDqAct44wIhMNqnTae5+DjNsfbd0EKDINH4vfNxzeYH8biL+hsFM1NQw\nNlLzmlSCiwKBgQCYBU5rgDNYcdUEfT5SBuRBCcTX/AS8bc5v5DX6HK7c4CEi8UES\n5u6LkPxyP6ktvFEl4LfwYaLFo4yrPGplmB59WRVpEpAb8d26x592YG8dzcP6liC+\n82AGd7pFcDUbBnnfpnN2+EJvAlyGUpMO0E81+x7MaYLl0AAMrgDaswZtTQKBgBhW\nY740psPJagQYIpl6H0AG+qI2Q1h9lFulRjzBJMlzSX3vgc+0IMdKxE8BG7n4iFSN\n+4TAowElJ9lmIA+rlWaFyV8F38gavW+gXNhkVIym5dXm8UPFqIvk5+AWGYzVvb9h\n7KL2SAk+OyKeSP36xd8ScqEcDDtHIGsK03EAVPojAoGBAMaznuX4TD9lY+jf59HW\nh48cxp2yUjzOu8uzWKqsBCaLXvvGlLu2hcqrp3O6LgiipBVpGmZb55FidmK+6quk\nCFOuzqyiialXT66jA/vhCRzCWBrObfzzd2pDaATLjxqUFiJFu4NFfNVQbV597rSs\nG/1nQNItb99r7xSRxEwZ16qc\n-----END PRIVATE KEY-----\n",
  "client_email": "qthemusic-staging@pc-api-5620998791403695449-789.iam.gserviceaccount.com",
  "client_id": "101290046292998398807",
  "auth_uri": "https://accounts.google.com/o/oauth2/auth",
  "token_uri": "https://oauth2.googleapis.com/token",
  "auth_provider_x509_cert_url": "https://www.googleapis.com/oauth2/v1/certs",
  "client_x509_cert_url": "https://www.googleapis.com/robot/v1/metadata/x509/qthemusic-staging%40pc-api-5620998791403695449-789.iam.gserviceaccount.com"
}
