<svg xmlns="http://www.w3.org/2000/svg" width="18" height="18" viewBox="0 0 18 18">
  <path id="Icon_awesome-phone" data-name="Icon awesome-phone" d="M.653.864,4.309.021a.849.849,0,0,1,.967.489L6.964,4.447a.842.842,0,0,1-.243.984L4.591,7.175a13.029,13.029,0,0,0,6.23,6.23l1.744-2.13a.843.843,0,0,1,.984-.243l3.937,1.687a.854.854,0,0,1,.492.97l-.844,3.656a.843.843,0,0,1-.823.654A16.31,16.31,0,0,1,0,1.687.843.843,0,0,1,.653.864Z" transform="translate(0.001 0.001)" fill="#979797"/>
</svg>
