<svg xmlns="http://www.w3.org/2000/svg" width="31" height="31" viewBox="0 0 31 31">
  <g id="Group_2553" data-name="Group 2553" transform="translate(-1751 -249)">
    <rect id="Rectangle_1612" data-name="Rectangle 1612" width="31" height="31" rx="8" transform="translate(1751 249)" fill="red" opacity="0.1"/>
    <path id="cancel-line" d="M8.5,2A6.5,6.5,0,1,1,2,8.5,6.5,6.5,0,0,1,8.5,2Zm5.688,6.5a5.659,5.659,0,0,0-1.393-3.717L4.783,12.794a5.688,5.688,0,0,0,9.4-4.294ZM4.206,12.217l8.011-8.011a5.687,5.687,0,0,0-8.011,8.011Z" transform="translate(1758 256)" fill="red" stroke="red" stroke-width="1"/>
  </g>
</svg>
